<?xml version="1.0" encoding="utf-8"?>
<!-- Generator: Adobe Illustrator 19.2.1, SVG Export Plug-In . SVG Version: 6.00 Build 0)  -->
<svg version="1.1" id="Layer_1" xmlns:sketch="http://www.bohemiancoding.com/sketch/ns"
	 xmlns="http://www.w3.org/2000/svg" xmlns:xlink="http://www.w3.org/1999/xlink" x="0px" y="0px" viewBox="0 0 76 76"
	 style="enable-background:new 0 0 76 76;" xml:space="preserve">
<style type="text/css">
	.st0{fill:#E24329;}
	.st1{fill:none;stroke:#E5E5E4;stroke-width:2;stroke-linecap:round;stroke-linejoin:round;stroke-miterlimit:10;}
	.st2{fill:#8C929D;}
	.st3{fill:#FC6D26;}
	.st4{fill:#FCA326;}
	.st5{fill:#444444;}
	.st6{fill:#554488;}
	.st7{fill:#4887C5;}
	.st8{fill:url(#SVGID_1_);}
	.st9{fill:url(#SVGID_2_);}
	.st10{fill:#FFFFFF;}
	.st11{opacity:0.1;}
	.st12{fill:#5C5C5C;}
	.st13{fill:#787878;}
	.st14{fill:#A1A1A1;}
	.st15{opacity:0.15;}
	.st16{fill:#373D47;}
	.st17{fill:#6B4FBB;}
	.st18{fill:none;stroke:#000000;stroke-miterlimit:10;}
	.st19{fill:none;stroke:#FC6D26;stroke-width:1.8;stroke-linecap:round;stroke-linejoin:round;stroke-miterlimit:10;}
	.st20{fill:none;stroke:#E24329;stroke-width:1.8;stroke-linecap:round;stroke-linejoin:round;stroke-miterlimit:10;}
	.st21{fill:none;stroke:#FCA326;stroke-width:1.8;stroke-linecap:round;stroke-linejoin:round;stroke-miterlimit:10;}
	.st22{fill:none;stroke:#E5E5E4;stroke-width:1.8;stroke-linecap:round;stroke-linejoin:round;stroke-miterlimit:10;}
	.st23{fill:#2B2B2B;}
	.st24{fill:#FFFFFF;stroke:#E5E5E4;stroke-width:2;stroke-linecap:round;stroke-linejoin:round;stroke-miterlimit:10;}
	.st25{fill:#E5E5E4;}
	.st26{fill:none;stroke:#E5E5E4;stroke-width:1.8353;stroke-linecap:round;stroke-linejoin:round;stroke-miterlimit:10;}
	.st27{fill:none;stroke:#E14329;stroke-width:2;stroke-linecap:round;stroke-linejoin:round;stroke-miterlimit:10;}
	.st28{fill:#FFFFFF;stroke:#E14329;stroke-width:2;stroke-linecap:round;stroke-linejoin:round;stroke-miterlimit:10;}
	.st29{fill:none;stroke:#E14329;stroke-width:1.9627;stroke-linecap:round;stroke-linejoin:round;stroke-miterlimit:10;}
	.st30{fill:#E14329;}
	.st31{fill:none;stroke:#E14329;stroke-width:2.1099;stroke-linecap:round;stroke-linejoin:round;stroke-miterlimit:10;}
	.st32{fill:none;stroke:#FCA326;stroke-width:2;stroke-linecap:round;stroke-linejoin:round;stroke-miterlimit:10;}
	.st33{fill:none;stroke:#E14329;stroke-width:4;stroke-linecap:round;stroke-linejoin:round;stroke-miterlimit:10;}
	.st34{fill:none;stroke:#E14329;stroke-width:1.8353;stroke-linecap:round;stroke-linejoin:round;stroke-miterlimit:10;}
	.st35{fill:none;stroke:#E24329;stroke-width:2;stroke-linecap:round;stroke-linejoin:round;stroke-miterlimit:10;}
	.st36{fill:none;stroke:#E14329;stroke-width:2.055;stroke-linecap:round;stroke-linejoin:round;stroke-miterlimit:10;}
	.st37{fill:#463675;}
	.st38{fill:none;stroke:#FFFFFF;stroke-width:2;stroke-miterlimit:10;}
	.st39{fill:none;stroke:#FFFFFF;stroke-width:2.0065;stroke-miterlimit:10;}
	.st40{fill:none;stroke:#E14329;stroke-width:2.1111;stroke-linecap:round;stroke-linejoin:round;stroke-miterlimit:10;}
	.st41{fill:none;stroke:#E14329;stroke-width:2.0295;stroke-linecap:round;stroke-linejoin:round;stroke-miterlimit:10;}
	.st42{fill:#FFB6CA;}
	.st43{fill:none;stroke:#E14329;stroke-width:2.0074;stroke-linecap:round;stroke-linejoin:round;stroke-miterlimit:10;}
	.st44{fill:none;stroke:#E14329;stroke-width:1.9282;stroke-linecap:round;stroke-linejoin:round;stroke-miterlimit:10;}
	.st45{fill:none;stroke:#E14329;stroke-width:2.0019;stroke-linecap:round;stroke-linejoin:round;stroke-miterlimit:10;}
	.st46{fill:none;stroke:#E14329;stroke-width:2.0013;stroke-linecap:round;stroke-linejoin:round;stroke-miterlimit:10;}
	.st47{fill:none;stroke:#E14329;stroke-width:2.0821;stroke-linecap:round;stroke-linejoin:round;stroke-miterlimit:10;}
	.st48{fill:none;stroke:#E14329;stroke-width:1.8741;stroke-linecap:round;stroke-linejoin:round;stroke-miterlimit:10;}
	.st49{fill:none;stroke:#E14329;stroke-width:1.9965;stroke-linecap:round;stroke-linejoin:round;stroke-miterlimit:10;}
	.st50{fill:none;stroke:#E14329;stroke-width:2.1108;stroke-linecap:round;stroke-linejoin:round;stroke-miterlimit:10;}
	.st51{fill:none;stroke:#E14329;stroke-width:2.1;stroke-linecap:round;stroke-linejoin:round;stroke-miterlimit:10;}
	.st52{fill:none;stroke:#E14329;stroke-width:2.1103;stroke-linecap:round;stroke-linejoin:round;stroke-miterlimit:10;}
	.st53{fill:none;stroke:#E14329;stroke-width:1.9134;stroke-linecap:round;stroke-linejoin:round;stroke-miterlimit:10;}
	.st54{fill:none;stroke:#E14329;stroke-width:1.8373;stroke-linecap:round;stroke-linejoin:round;stroke-miterlimit:10;}
	.st55{fill:none;stroke:#E24329;stroke-width:2.0215;stroke-linecap:round;stroke-linejoin:round;stroke-miterlimit:10;}
	.st56{fill:none;stroke:#E24329;stroke-width:2.1768;stroke-linecap:round;stroke-linejoin:round;stroke-miterlimit:10;}
	.st57{fill:#FFFFFF;stroke:#E14329;stroke-width:1.8373;stroke-linecap:round;stroke-linejoin:round;stroke-miterlimit:10;}
	.st58{fill:#FFFFFF;stroke:#E14329;stroke-width:1.725;stroke-linecap:round;stroke-linejoin:round;stroke-miterlimit:10;}
	.st59{fill:none;stroke:#000000;stroke-width:2;stroke-miterlimit:10;}
	.st60{fill:none;stroke:#373D47;stroke-width:2;stroke-linecap:round;stroke-linejoin:round;stroke-miterlimit:10;}
	.st61{fill:#FFFFFF;stroke:#373D47;stroke-width:2;stroke-linecap:round;stroke-linejoin:round;stroke-miterlimit:10;}
	.st62{fill:#A3A2A2;}
	.st63{clip-path:url(#SVGID_4_);}
	.st64{fill:none;stroke:#FCA326;stroke-width:1.9663;stroke-linecap:round;stroke-linejoin:round;stroke-miterlimit:10;}
	.st65{fill:none;stroke:#FCA326;stroke-width:2;stroke-linecap:round;stroke-linejoin:round;}
	.st66{fill:none;stroke:#FCA326;stroke-width:2;stroke-linecap:round;stroke-linejoin:round;stroke-dasharray:4.1176,4.1176;}
	.st67{fill:none;stroke:#E14329;stroke-width:1.9862;stroke-linecap:round;stroke-linejoin:round;stroke-miterlimit:10;}
	.st68{fill:none;stroke:#E14329;stroke-width:2.0007;stroke-linecap:round;stroke-linejoin:round;stroke-miterlimit:10;}
	.st69{fill:none;stroke:#FCA326;stroke-width:2.1818;stroke-linecap:round;stroke-linejoin:round;stroke-miterlimit:10;}
	.st70{fill:none;stroke:#FCA326;stroke-width:1.9373;stroke-linecap:round;stroke-linejoin:round;stroke-miterlimit:10;}
	.st71{fill:none;stroke:#FCA326;stroke-width:14;stroke-linecap:round;stroke-miterlimit:10;}
	.st72{fill:none;stroke:#E14329;stroke-width:2.0972;stroke-linecap:round;stroke-linejoin:round;stroke-miterlimit:10;}
	.st73{fill:none;stroke:#E14329;stroke-width:1.8901;stroke-linecap:round;stroke-linejoin:round;stroke-miterlimit:10;}
	.st74{fill:none;stroke:#E24329;stroke-width:1.633;stroke-linecap:round;stroke-linejoin:round;stroke-miterlimit:10;}
	.st75{fill:none;stroke:#E24329;stroke-width:1.9397;stroke-linecap:round;stroke-linejoin:round;stroke-miterlimit:10;}
</style>
<path class="st0" d="M67.8,6h-6.9c-0.5-3.4-3.4-6-6.9-6c-3.9,0-7,3.1-7,7s3.1,7,7,7c3.5,0,6.4-2.6,6.9-6h6.9C69,8,70,9,70,10.2v61.5
	c0,1.2-1,2.2-2.2,2.2H8.2C7,74,6,73,6,71.8V10.2C6,9,7,8,8.2,8h27.9c0.6,0,1-0.4,1-1s-0.4-1-1-1H8.2C5.9,6,4,7.9,4,10.2v61.5
	C4,74.1,5.9,76,8.2,76h59.6c2.3,0,4.2-1.9,4.2-4.2V10.2C72,7.9,70.1,6,67.8,6z M54,12c-2.8,0-5-2.2-5-5s2.2-5,5-5s5,2.2,5,5
	S56.8,12,54,12z"/>
<path class="st0" d="M60.1,45.4C60.1,45.4,60.1,45.4,60.1,45.4l-6.8-20.8c-0.2-0.7-0.9-1.2-1.7-1.2c0,0,0,0,0,0
	c-0.8,0-1.4,0.5-1.7,1.1l-3.9,8.9c-0.2,0.5,0,1.1,0.5,1.3c0.5,0.2,1.1,0,1.3-0.5l3.7-8.4L58.2,46l0,0c0.1,0.2,0,0.5-0.2,0.6L39,60.4
	l-13.1-9.5c-0.1-0.1-0.1-0.1-0.2-0.2l-5.7-4.1c-0.2-0.1-0.3-0.4-0.2-0.6l0.1-0.3c0.3,0,0.5,0.1,0.8,0.1c2.8,0,5-2.2,5-5
	c0-2-1.2-3.7-2.9-4.5l3.5-10.4L30.6,39c0.1,0.4,0.5,0.7,1,0.7h19.3c0.6,0,1-0.4,1-1s-0.4-1-1-1H32.3L28,24.6
	c-0.2-0.7-0.9-1.2-1.7-1.2h0c-0.8,0-1.4,0.5-1.7,1.2l-3.7,11.2c0,0-0.1,0-0.1,0c-2.8,0-5,2.2-5,5c0,1.8,0.9,3.3,2.3,4.2L18,45.4
	c-0.3,1.1,0,2.2,0.9,2.8l4,2.9c0.1,0.1,0.1,0.1,0.2,0.2l15.4,11.2c0.2,0.1,0.4,0.2,0.6,0.2s0.4-0.1,0.6-0.2l19.6-14.2
	C60.1,47.6,60.5,46.4,60.1,45.4z M17.8,40.8c0-1.7,1.3-3,3-3s3,1.3,3,3s-1.3,3-3,3S17.8,42.4,17.8,40.8z"/>
</svg>
