<?xml version="1.0" encoding="utf-8"?>
<!-- Generator: Adobe Illustrator 20.0.0, SVG Export Plug-In . SVG Version: 6.00 Build 0)  -->
<!DOCTYPE svg PUBLIC "-//W3C//DTD SVG 1.1//EN" "http://www.w3.org/Graphics/SVG/1.1/DTD/svg11.dtd" [
	<!ENTITY st0 "fill:#E24329;">
]>
<svg version="1.1" id="Layer_1" xmlns="http://www.w3.org/2000/svg" xmlns:xlink="http://www.w3.org/1999/xlink" x="0px" y="0px"
	 viewBox="0 0 76 76" style="enable-background:new 0 0 76 76;" xml:space="preserve">
<g id="Layer_2">
</g>
<g id="Layer_1_1_" xmlns:sketch="http://www.bohemiancoding.com/sketch/ns">
	<g>
		<path style="&st0;" d="M73.236,23.749c-0.208-0.513-0.798-0.76-1.302-0.552c-0.513,0.207-0.759,0.79-0.552,1.302
			C73.119,28.787,74,33.329,74,38c0,19.851-16.149,36-36,36S2,57.851,2,38S18.149,2,38,2c7.6,0,14.83,2.332,20.965,6.74
			C58.339,9.702,58,10.825,58,12c0,1.603,0.624,3.109,1.758,4.242C60.891,17.376,62.397,18,64,18c1.603,0,3.109-0.624,4.242-1.758
			C69.376,15.109,70,13.603,70,12s-0.624-3.109-1.758-4.242C67.109,6.624,65.603,6,64,6c-1.346,0-2.622,0.445-3.668,1.259
			C53.812,2.512,46.104,0,38,0C17.047,0,0,17.047,0,38s17.047,38,38,38s38-17.047,38-38C76,33.07,75.07,28.275,73.236,23.749z M64,8
			c1.068,0,2.072,0.416,2.828,1.172S68,10.932,68,12s-0.416,2.072-1.172,2.828c-1.512,1.512-4.145,1.512-5.656,0
			C60.416,14.072,60,13.068,60,12s0.416-2.072,1.172-2.828S62.932,8,64,8z"/>
		<path style="&st0;" d="M27.192,32.173c-0.277-0.479-0.89-0.643-1.366-0.364l-12.654,7.326c-0.309,0.179-0.499,0.509-0.499,0.865
			s0.19,0.687,0.499,0.865l12.654,7.326c0.157,0.092,0.33,0.135,0.5,0.135c0.345,0,0.681-0.179,0.866-0.499
			c0.277-0.478,0.113-1.09-0.364-1.366L15.669,40l11.159-6.461C27.306,33.263,27.47,32.65,27.192,32.173z"/>
		<path style="&st0;" d="M48.808,47.827c0.186,0.32,0.521,0.499,0.866,0.499c0.17,0,0.343-0.043,0.5-0.135l12.654-7.326
			c0.309-0.179,0.499-0.509,0.499-0.865s-0.19-0.687-0.499-0.865l-12.654-7.326c-0.478-0.278-1.09-0.114-1.366,0.364
			c-0.277,0.478-0.113,1.09,0.364,1.366L60.331,40l-11.159,6.461C48.694,46.737,48.53,47.35,48.808,47.827z"/>
		<path style="&st0;" d="M42.71,23.063l-11.312,33.23c-0.179,0.522,0.102,1.091,0.624,1.269c0.106,0.037,0.216,0.054,0.322,0.054
			c0.416,0,0.805-0.262,0.946-0.678l11.312-33.23c0.179-0.522-0.102-1.091-0.624-1.269C43.455,22.258,42.889,22.54,42.71,23.063z"/>
	</g>
</g>
<g id="Layer_3">
</g>
</svg>
