<?xml version="1.0" encoding="utf-8"?>
<!-- Generator: Adobe Illustrator 20.0.0, SVG Export Plug-In . SVG Version: 6.00 Build 0)  -->
<!DOCTYPE svg PUBLIC "-//W3C//DTD SVG 1.1//EN" "http://www.w3.org/Graphics/SVG/1.1/DTD/svg11.dtd" [
	<!ENTITY st0 "fill:#A1A1A2;">
]>
<svg version="1.1" id="Layer_1" xmlns="http://www.w3.org/2000/svg" xmlns:xlink="http://www.w3.org/1999/xlink" x="0px" y="0px"
	 viewBox="0 0 46 46" style="enable-background:new 0 0 46 46;" xml:space="preserve">
<g id="Layer_2">
</g>
<g id="Layer_1_1_" xmlns:sketch="http://www.bohemiancoding.com/sketch/ns">
	<g>
		<path style="&st0;" d="M18,33c0,2.757,2.243,5,5,5s5-2.243,5-5s-2.243-5-5-5c-0.374,0-0.736,0.048-1.087,0.127L20.11,11h5.771
			l-1.375,12.214c-0.062,0.549,0.333,1.044,0.882,1.106c0.543,0.056,1.044-0.334,1.106-0.882l1.5-13.326
			c0.031-0.283-0.059-0.566-0.248-0.778C27.556,9.121,27.285,9,27,9h-8c-0.283,0-0.554,0.12-0.743,0.331s-0.281,0.492-0.251,0.773
			l1.992,18.923C18.792,29.941,18,31.374,18,33z M26,33c0,1.654-1.346,3-3,3s-3-1.346-3-3s1.346-3,3-3S26,31.346,26,33z"/>
		<path style="&st0;" d="M44.327,14.374c-0.207-0.513-0.789-0.76-1.302-0.552c-0.512,0.207-0.759,0.79-0.552,1.302
			C43.486,17.627,44,20.276,44,23c0,11.579-9.421,21-21,21S2,34.579,2,23S11.421,2,23,2c4.253,0,8.303,1.265,11.788,3.639
			C34.284,6.321,34,7.136,34,8c0,1.068,0.416,2.073,1.172,2.828C35.927,11.584,36.932,12,38,12s2.073-0.416,2.828-1.172
			C41.584,10.073,42,9.068,42,8s-0.416-2.073-1.172-2.828c-1.145-1.146-2.936-1.419-4.394-0.827C32.503,1.509,27.872,0,23,0
			C10.317,0,0,10.317,0,23s10.317,23,23,23s23-10.317,23-23C46,20.019,45.438,17.116,44.327,14.374z M39.414,6.586
			C39.792,6.964,40,7.466,40,8s-0.208,1.036-0.586,1.414c-0.756,0.756-2.072,0.756-2.828,0C36.208,9.036,36,8.534,36,8
			s0.208-1.036,0.586-1.414S37.466,6,38,6S39.036,6.208,39.414,6.586z"/>
	</g>
</g>
<g id="Layer_3">
</g>
</svg>
