<?xml version="1.0" encoding="utf-8"?>
<!-- Generator: Adobe Illustrator 20.0.0, SVG Export Plug-In . SVG Version: 6.00 Build 0)  -->
<!DOCTYPE svg PUBLIC "-//W3C//DTD SVG 1.1//EN" "http://www.w3.org/Graphics/SVG/1.1/DTD/svg11.dtd" [
	<!ENTITY st0 "fill:#A1A1A2;">
]>
<svg version="1.1" id="Layer_1" xmlns="http://www.w3.org/2000/svg" xmlns:xlink="http://www.w3.org/1999/xlink" x="0px" y="0px"
	 viewBox="0 0 46 46" style="enable-background:new 0 0 46 46;" xml:space="preserve">
<g id="Layer_2">
</g>
<g id="Layer_1_1_" xmlns:sketch="http://www.bohemiancoding.com/sketch/ns">
	<g>
		<path style="&st0;" d="M17.158,19.687c-0.276-0.479-0.89-0.645-1.366-0.364l-6.586,3.812C8.897,23.313,8.707,23.644,8.707,24
			s0.19,0.687,0.499,0.865l6.586,3.812c0.158,0.092,0.33,0.135,0.5,0.135c0.346,0,0.681-0.179,0.866-0.499
			c0.277-0.478,0.113-1.09-0.364-1.366L11.703,24l5.091-2.947C17.271,20.776,17.436,20.164,17.158,19.687z"/>
		<path style="&st0;" d="M28.842,28.313c0.186,0.32,0.521,0.499,0.866,0.499c0.17,0,0.343-0.043,0.5-0.135l6.586-3.812
			c0.309-0.179,0.499-0.509,0.499-0.865s-0.19-0.687-0.499-0.865l-6.586-3.812c-0.481-0.28-1.09-0.114-1.366,0.364
			c-0.277,0.478-0.113,1.09,0.364,1.366L34.297,24l-5.091,2.947C28.729,27.224,28.564,27.836,28.842,28.313z"/>
		<path style="&st0;" d="M24.997,15.031L19.11,32.324c-0.179,0.522,0.102,1.091,0.624,1.269c0.106,0.037,0.216,0.054,0.322,0.054
			c0.416,0,0.805-0.262,0.946-0.678l5.887-17.293c0.179-0.522-0.102-1.091-0.624-1.269C25.743,14.225,25.176,14.509,24.997,15.031z"
			/>
		<path style="&st0;" d="M44.327,14.374c-0.207-0.513-0.789-0.76-1.302-0.552c-0.512,0.207-0.759,0.79-0.552,1.302
			C43.486,17.627,44,20.276,44,23c0,11.579-9.421,21-21,21S2,34.579,2,23S11.421,2,23,2c4.253,0,8.303,1.265,11.788,3.639
			C34.284,6.321,34,7.136,34,8c0,1.068,0.416,2.073,1.172,2.828C35.927,11.584,36.932,12,38,12s2.073-0.416,2.828-1.172
			C41.584,10.073,42,9.068,42,8s-0.416-2.073-1.172-2.828c-1.145-1.146-2.936-1.419-4.394-0.827C32.503,1.509,27.872,0,23,0
			C10.317,0,0,10.317,0,23s10.317,23,23,23s23-10.317,23-23C46,20.019,45.438,17.116,44.327,14.374z M39.414,6.586
			C39.792,6.964,40,7.466,40,8s-0.208,1.036-0.586,1.414c-0.756,0.756-2.072,0.756-2.828,0C36.208,9.036,36,8.534,36,8
			s0.208-1.036,0.586-1.414S37.466,6,38,6S39.036,6.208,39.414,6.586z"/>
	</g>
</g>
<g id="Layer_3">
</g>
</svg>
