<?xml version="1.0" encoding="utf-8"?>
<!-- Generator: Adobe Illustrator 20.0.0, SVG Export Plug-In . SVG Version: 6.00 Build 0)  -->
<!DOCTYPE svg PUBLIC "-//W3C//DTD SVG 1.1//EN" "http://www.w3.org/Graphics/SVG/1.1/DTD/svg11.dtd" [
	<!ENTITY st0 "fill:#E14329;">
]>
<svg version="1.1" id="Layer_1" xmlns="http://www.w3.org/2000/svg" xmlns:xlink="http://www.w3.org/1999/xlink" x="0px" y="0px"
	 viewBox="0 0 76 76" style="enable-background:new 0 0 76 76;" xml:space="preserve">
<g id="Layer_2">
</g>
<g id="Layer_1_1_" xmlns:sketch="http://www.bohemiancoding.com/sketch/ns">
	<g>
		<path style="&st0;" d="M48.949,37C48.442,31.402,43.728,27,38,27s-10.442,4.402-10.949,10H14c-0.553,0-1,0.447-1,1s0.447,1,1,1
			h13.051C27.558,44.598,32.272,49,38,49s10.442-4.402,10.949-10h12.24c0.553,0,1-0.447,1-1s-0.447-1-1-1H48.949z M38,47
			c-4.963,0-9-4.037-9-9s4.037-9,9-9s9,4.037,9,9S42.963,47,38,47z"/>
		<path style="&st0;" d="M73.236,23.749c-0.207-0.513-0.797-0.76-1.302-0.552c-0.513,0.207-0.759,0.79-0.552,1.302
			C73.119,28.787,74,33.329,74,38c0,19.851-16.149,36-36,36S2,57.851,2,38S18.149,2,38,2c7.6,0,14.83,2.332,20.965,6.74
			C58.339,9.702,58,10.825,58,12c0,1.603,0.624,3.109,1.758,4.242C60.891,17.376,62.397,18,64,18c1.603,0,3.109-0.624,4.242-1.758
			C69.376,15.109,70,13.603,70,12s-0.624-3.109-1.758-4.242C67.109,6.624,65.603,6,64,6c-1.346,0-2.622,0.445-3.668,1.259
			C53.812,2.512,46.104,0,38,0C17.047,0,0,17.047,0,38s17.047,38,38,38s38-17.047,38-38C76,33.07,75.07,28.275,73.236,23.749z M64,8
			c1.068,0,2.072,0.416,2.828,1.172S68,10.932,68,12s-0.416,2.072-1.172,2.828c-1.512,1.512-4.145,1.512-5.656,0
			C60.416,14.072,60,13.068,60,12s0.416-2.072,1.172-2.828S62.932,8,64,8z"/>
	</g>
</g>
<g id="Layer_3">
</g>
</svg>
