<?xml version="1.0" encoding="utf-8"?>
<!-- Generator: Adobe Illustrator 20.0.0, SVG Export Plug-In . SVG Version: 6.00 Build 0)  -->
<!DOCTYPE svg PUBLIC "-//W3C//DTD SVG 1.1//EN" "http://www.w3.org/Graphics/SVG/1.1/DTD/svg11.dtd" [
	<!ENTITY st0 "fill:#A1A1A2;">
]>
<svg version="1.1" id="Layer_1" xmlns="http://www.w3.org/2000/svg" xmlns:xlink="http://www.w3.org/1999/xlink" x="0px" y="0px"
	 viewBox="0 0 46 46" style="enable-background:new 0 0 46 46;" xml:space="preserve">
<g id="Layer_2">
</g>
<g id="Layer_1_1_" xmlns:sketch="http://www.bohemiancoding.com/sketch/ns">
	<g>
		<path style="&st0;" d="M24,8c1.869,0,3.429-1.293,3.866-3.027h9.279c2.071,0,3.757,1.686,3.757,3.757v6.541c0,0.553,0.447,1,1,1
			s1-0.447,1-1V8.729c0-3.175-2.582-5.757-5.757-5.757H27.85C27.393,1.266,25.849,0,24,0c-2.206,0-4,1.794-4,4S21.794,8,24,8z M24,2
			c1.103,0,2,0.897,2,2s-0.897,2-2,2s-2-0.897-2-2S22.897,2,24,2z"/>
		<path style="&st0;" d="M3,26c0,0.553,0.447,1,1,1s1-0.447,1-1v-2h2c0.553,0,1-0.447,1-1s-0.447-1-1-1H5v-2c0-0.553-0.447-1-1-1
			s-1,0.447-1,1v2H1c-0.553,0-1,0.447-1,1s0.447,1,1,1h2V26z"/>
		<path style="&st0;" d="M45,22h-2v-2c0-0.553-0.447-1-1-1s-1,0.447-1,1v2h-2c-0.553,0-1,0.447-1,1s0.447,1,1,1h2v2
			c0,0.553,0.447,1,1,1s1-0.447,1-1v-2h2c0.553,0,1-0.447,1-1S45.553,22,45,22z"/>
		<path style="&st0;" d="M12.831,22.152c-0.292,0.183-0.47,0.503-0.47,0.848s0.178,0.665,0.47,0.848l4.757,2.973
			c0.165,0.104,0.349,0.152,0.529,0.152c0.333,0,0.659-0.167,0.849-0.47c0.293-0.469,0.15-1.086-0.317-1.378L15.248,23l3.4-2.125
			c0.468-0.292,0.61-0.909,0.317-1.378c-0.292-0.469-0.908-0.611-1.378-0.317L12.831,22.152z"/>
		<path style="&st0;" d="M32.919,23.848c0.292-0.183,0.47-0.503,0.47-0.848s-0.178-0.665-0.47-0.848l-4.757-2.973
			c-0.47-0.294-1.086-0.149-1.378,0.317c-0.293,0.469-0.15,1.086,0.317,1.378l3.4,2.125l-3.4,2.125
			c-0.468,0.292-0.61,0.909-0.317,1.378c0.189,0.304,0.516,0.47,0.849,0.47c0.181,0,0.364-0.049,0.529-0.152L32.919,23.848z"/>
		<path style="&st0;" d="M20.491,30.494c0.101,0.032,0.202,0.047,0.303,0.047c0.424,0,0.817-0.271,0.953-0.697l4.162-13.082
			c0.167-0.525-0.124-1.088-0.65-1.256c-0.525-0.169-1.089,0.123-1.256,0.65l-4.162,13.082
			C19.674,29.764,19.965,30.326,20.491,30.494z"/>
		<path style="&st0;" d="M3.848,16.271c0.553,0,1-0.447,1-1V8.729c0-2.071,1.686-3.757,3.757-3.757h5.614l-1.266,1.267
			c-0.391,0.391-0.391,1.023,0,1.414c0.195,0.195,0.451,0.293,0.707,0.293s0.512-0.098,0.707-0.293l2.973-2.974
			c0.391-0.391,0.391-1.023,0-1.414l-2.973-2.973c-0.391-0.391-1.023-0.391-1.414,0s-0.391,1.023,0,1.414l1.266,1.266H8.604
			c-3.175,0-5.757,2.582-5.757,5.757v6.541C2.848,15.823,3.295,16.271,3.848,16.271z"/>
		<path style="&st0;" d="M22,38c-1.869,0-3.429,1.293-3.866,3.027h-9.53c-2.071,0-3.757-1.686-3.757-3.757v-6.541
			c0-0.553-0.447-1-1-1s-1,0.447-1,1v6.541c0,3.175,2.582,5.757,5.757,5.757h9.546C18.607,44.734,20.151,46,22,46
			c2.206,0,4-1.794,4-4S24.206,38,22,38z M22,44c-1.103,0-2-0.897-2-2s0.897-2,2-2s2,0.897,2,2S23.103,44,22,44z"/>
		<path style="&st0;" d="M41.902,29.729c-0.553,0-1,0.447-1,1v6.541c0,2.071-1.686,3.757-3.757,3.757h-5.614l1.266-1.267
			c0.391-0.391,0.391-1.023,0-1.414s-1.023-0.391-1.414,0L28.41,41.32c-0.391,0.391-0.391,1.023,0,1.414l2.973,2.973
			C31.579,45.902,31.835,46,32.091,46s0.512-0.098,0.707-0.293c0.391-0.391,0.391-1.023,0-1.414l-1.266-1.266h5.613
			c3.175,0,5.757-2.582,5.757-5.757v-6.541C42.902,30.177,42.455,29.729,41.902,29.729z"/>
	</g>
</g>
<g id="Layer_3">
</g>
</svg>
